#name	j_codon_frame	chain_type	j_cdr3_end	extra_bps
IGHJ1-PVVP*01	0	JH	17	1
IGHJ1-PVVP*02	0	JH	17	1
IGHJ2-DDLH*01	1	JH	18	1
IGHJ2-DDLH*02	1	JH	18	1
IGHJ3-XRNC*01	1	JH	15	1
IGHJ4-JSJ6*01	2	JH	13	1
IGHJ4-JSJ6*02	2	JH	13	1
IGHJ5-MIQL*01	2	JH	16	1
IGHJ5-MIQL*02	2	JH	16	1
IGHJ5-MIQL*03	2	JH	16	1
IGHJ5-XD6S*01	2	JH	16	1
IGHJ5-XD6S*02	2	JH	16	1
IGHJ5-XD6S*03	2	JH	16	1
IGHJ6-GAIV*01	2	JH	19	1
IGHJ6-GAIV*02	2	JH	19	1
