#name	j_codon_frame	chain_type	j_cdr3_end	extra_bps
IGLJ2-4GA4*01	1	JL	6	1
IGLJ2-LMZW*01	1	JL	6	1
IGLJ2-XOP7*01	1	JL	6	1
IGLJ2-YWNK*01	1	JL	6	1
IGLJ5-PIRL*01	1	JL	6	1
IGLJ7-3R4H*01	1	JL	6	1
IGLJ7-3R4H*02	1	JL	6	1
IGLJ7-JLWC*01	1	JL	6	1
