Samples_Chain	Samples_Date	Samples_Genotype Detection Name	Samples_Name	Samples_Reads	Samples_Sample Group	Samples_Sequence Protocol Name	Samples_Subject Name	Samples_Tissue Processing Name	Tissue_Processing_Cell Type	Tissue_Processing_Isotype	Tissue_Processing_Name	Tissue_Processing_Species	Tissue_Processing_Sub Cell Type	Tissue_Processing_Tissue	Subjects_Age	Subjects_Cohort	Subjects_Ethnic	Subjects_Health Status	Subjects_Name	Subjects_Original name	Subjects_Sex	Info_Accession id	Info_Accession reference	Info_Contact	Genotype_Detections_Aligner Tool	Genotype_Detections_Aligner Version	Genotype_Detections_Genotyper Tool	Genotype_Detections_Genotyper Version	Genotype_Detections_Germline Reference	Genotype_Detections_Haplotyper Tool	Genotype_Detections_Haplotyper Version	Genotype_Detections_Name	Genotype_Detections_Pre-processing	Genotype_Detections_Repertoire or Germline	Genotype_Detections_Single Assignment	Info_Institute	Info_Number of Samples	Info_Number of Subjects	Info_Project	Info_Reference	Info_Researcher	Sequence_Protocol_Helix	Sequence_Protocol_Name	Sequence_Protocol_Primer 3 location	Sequence_Protocol_Primer 5 location	Sequence_Protocol_Sequencing_length	Sequence_Protocol_Sequencing_platform	Sequence_Protocol_UMI
Heavy	2019-08-29 13:17:41.207891	Genotype_Pipeline_11_07_19	P6_I101_S1	53021	1	P6_Sequence_protocol	P6_I101	P6_pbmc	B-CELL		P6_pbmc	Homo Sapiens	PBMC	Blood	38	HHC		Healthy	P6_I101		F	BioProject: PRJNA491287	https://www.ncbi.nlm.nih.gov/bioproject/?term=PRJNA491287	http://med.stanford.edu/scottboydlab.html	IgBLAST	1.7.0	TigGER	0.3.1	IMGT full - version 4/12/2018	RabHIT	0.1.1	Genotype_Pipeline_11_07_19	see reference	Repertoire	TRUE	Stanford	114	114	P6	NA	Boyd	rna	P6_Sequence_protocol	Constant region	FW-1	BIOMED-2	Unknown	FALSE
Heavy	2019-08-29 13:17:42.850721	Genotype_Pipeline_11_07_19	P6_I102_S1	15294	1	P6_Sequence_protocol	P6_I102	P6_pbmc	B-CELL		P6_pbmc	Homo Sapiens	PBMC	Blood	52	HHC		Healthy	P6_I102		F	BioProject: PRJNA491287	https://www.ncbi.nlm.nih.gov/bioproject/?term=PRJNA491287	http://med.stanford.edu/scottboydlab.html	IgBLAST	1.7.0	TigGER	0.3.1	IMGT full - version 4/12/2018	RabHIT	0.1.1	Genotype_Pipeline_11_07_19	see reference	Repertoire	TRUE	Stanford	114	114	P6	NA	Boyd	rna	P6_Sequence_protocol	Constant region	FW-1	BIOMED-2	Unknown	FALSE
Heavy	2019-08-29 13:17:44.377274	Genotype_Pipeline_11_07_19	P6_I103_S1	114481	1	P6_Sequence_protocol	P6_I103	P6_pbmc	B-CELL		P6_pbmc	Homo Sapiens	PBMC	Blood	50	HHC		Healthy	P6_I103		F	BioProject: PRJNA491287	https://www.ncbi.nlm.nih.gov/bioproject/?term=PRJNA491287	http://med.stanford.edu/scottboydlab.html	IgBLAST	1.7.0	TigGER	0.3.1	IMGT full - version 4/12/2018	RabHIT	0.1.1	Genotype_Pipeline_11_07_19	see reference	Repertoire	TRUE	Stanford	114	114	P6	NA	Boyd	rna	P6_Sequence_protocol	Constant region	FW-1	BIOMED-2	Unknown	FALSE
Heavy	2019-08-29 13:17:46.440198	Genotype_Pipeline_11_07_19	P6_I104_S1	38419	1	P6_Sequence_protocol	P6_I104	P6_pbmc	B-CELL		P6_pbmc	Homo Sapiens	PBMC	Blood	45	HHC		Healthy	P6_I104		M	BioProject: PRJNA491287	https://www.ncbi.nlm.nih.gov/bioproject/?term=PRJNA491287	http://med.stanford.edu/scottboydlab.html	IgBLAST	1.7.0	TigGER	0.3.1	IMGT full - version 4/12/2018	RabHIT	0.1.1	Genotype_Pipeline_11_07_19	see reference	Repertoire	TRUE	Stanford	114	114	P6	NA	Boyd	rna	P6_Sequence_protocol	Constant region	FW-1	BIOMED-2	Unknown	FALSE
Heavy	2019-08-29 13:17:39.331368	Genotype_Pipeline_11_07_19	P6_I10_S1	52261	1	P6_Sequence_protocol	P6_I10	P6_pbmc	B-CELL		P6_pbmc	Homo Sapiens	PBMC	Blood	50	HHC		Healthy	P6_I10		M	BioProject: PRJNA491287	https://www.ncbi.nlm.nih.gov/bioproject/?term=PRJNA491287	http://med.stanford.edu/scottboydlab.html	IgBLAST	1.7.0	TigGER	0.3.1	IMGT full - version 4/12/2018	RabHIT	0.1.1	Genotype_Pipeline_11_07_19	see reference	Repertoire	TRUE	Stanford	114	114	P6	NA	Boyd	rna	P6_Sequence_protocol	Constant region	FW-1	BIOMED-2	Unknown	FALSE
Heavy	2019-08-29 13:17:49.920875	Genotype_Pipeline_11_07_19	P6_I110_S1	68450	1	P6_Sequence_protocol	P6_I110	P6_pbmc	B-CELL		P6_pbmc	Homo Sapiens	PBMC	Blood	28	HHC		Healthy	P6_I110		F	BioProject: PRJNA491287	https://www.ncbi.nlm.nih.gov/bioproject/?term=PRJNA491287	http://med.stanford.edu/scottboydlab.html	IgBLAST	1.7.0	TigGER	0.3.1	IMGT full - version 4/12/2018	RabHIT	0.1.1	Genotype_Pipeline_11_07_19	see reference	Repertoire	TRUE	Stanford	114	114	P6	NA	Boyd	rna	P6_Sequence_protocol	Constant region	FW-1	BIOMED-2	Unknown	FALSE
Heavy	2019-08-29 13:17:51.592753	Genotype_Pipeline_11_07_19	P6_I111_S1	17658	1	P6_Sequence_protocol	P6_I111	P6_pbmc	B-CELL		P6_pbmc	Homo Sapiens	PBMC	Blood	57	HHC		Healthy	P6_I111		M	BioProject: PRJNA491287	https://www.ncbi.nlm.nih.gov/bioproject/?term=PRJNA491287	http://med.stanford.edu/scottboydlab.html	IgBLAST	1.7.0	TigGER	0.3.1	IMGT full - version 4/12/2018	RabHIT	0.1.1	Genotype_Pipeline_11_07_19	see reference	Repertoire	TRUE	Stanford	114	114	P6	NA	Boyd	rna	P6_Sequence_protocol	Constant region	FW-1	BIOMED-2	Unknown	FALSE
Heavy	2019-08-29 13:17:53.161923	Genotype_Pipeline_11_07_19	P6_I112_S1	25257	1	P6_Sequence_protocol	P6_I112	P6_pbmc	B-CELL		P6_pbmc	Homo Sapiens	PBMC	Blood	18	HHC		Healthy	P6_I112		M	BioProject: PRJNA491287	https://www.ncbi.nlm.nih.gov/bioproject/?term=PRJNA491287	http://med.stanford.edu/scottboydlab.html	IgBLAST	1.7.0	TigGER	0.3.1	IMGT full - version 4/12/2018	RabHIT	0.1.1	Genotype_Pipeline_11_07_19	see reference	Repertoire	TRUE	Stanford	114	114	P6	NA	Boyd	rna	P6_Sequence_protocol	Constant region	FW-1	BIOMED-2	Unknown	FALSE
Heavy	2019-08-29 13:17:48.136975	Genotype_Pipeline_11_07_19	P6_I11_S1	15631	1	P6_Sequence_protocol	P6_I11	P6_pbmc	B-CELL		P6_pbmc	Homo Sapiens	PBMC	Blood	29	HHC		Healthy	P6_I11		F	BioProject: PRJNA491287	https://www.ncbi.nlm.nih.gov/bioproject/?term=PRJNA491287	http://med.stanford.edu/scottboydlab.html	IgBLAST	1.7.0	TigGER	0.3.1	IMGT full - version 4/12/2018	RabHIT	0.1.1	Genotype_Pipeline_11_07_19	see reference	Repertoire	TRUE	Stanford	114	114	P6	NA	Boyd	rna	P6_Sequence_protocol	Constant region	FW-1	BIOMED-2	Unknown	FALSE
Heavy	2019-08-29 13:17:54.664733	Genotype_Pipeline_11_07_19	P6_I12_S1	62433	1	P6_Sequence_protocol	P6_I12	P6_pbmc	B-CELL		P6_pbmc	Homo Sapiens	PBMC	Blood	25	HHC		Healthy	P6_I12		F	BioProject: PRJNA491287	https://www.ncbi.nlm.nih.gov/bioproject/?term=PRJNA491287	http://med.stanford.edu/scottboydlab.html	IgBLAST	1.7.0	TigGER	0.3.1	IMGT full - version 4/12/2018	RabHIT	0.1.1	Genotype_Pipeline_11_07_19	see reference	Repertoire	TRUE	Stanford	114	114	P6	NA	Boyd	rna	P6_Sequence_protocol	Constant region	FW-1	BIOMED-2	Unknown	FALSE
Heavy	2019-08-29 13:17:56.220739	Genotype_Pipeline_11_07_19	P6_I13_S1	29241	1	P6_Sequence_protocol	P6_I13	P6_pbmc	B-CELL		P6_pbmc	Homo Sapiens	PBMC	Blood	53	HHC		Healthy	P6_I13		M	BioProject: PRJNA491287	https://www.ncbi.nlm.nih.gov/bioproject/?term=PRJNA491287	http://med.stanford.edu/scottboydlab.html	IgBLAST	1.7.0	TigGER	0.3.1	IMGT full - version 4/12/2018	RabHIT	0.1.1	Genotype_Pipeline_11_07_19	see reference	Repertoire	TRUE	Stanford	114	114	P6	NA	Boyd	rna	P6_Sequence_protocol	Constant region	FW-1	BIOMED-2	Unknown	FALSE
Heavy	2019-08-29 13:17:57.779109	Genotype_Pipeline_11_07_19	P6_I14_S1	19137	1	P6_Sequence_protocol	P6_I14	P6_pbmc	B-CELL		P6_pbmc	Homo Sapiens	PBMC	Blood	81	HHC		Healthy	P6_I14		M	BioProject: PRJNA491287	https://www.ncbi.nlm.nih.gov/bioproject/?term=PRJNA491287	http://med.stanford.edu/scottboydlab.html	IgBLAST	1.7.0	TigGER	0.3.1	IMGT full - version 4/12/2018	RabHIT	0.1.1	Genotype_Pipeline_11_07_19	see reference	Repertoire	TRUE	Stanford	114	114	P6	NA	Boyd	rna	P6_Sequence_protocol	Constant region	FW-1	BIOMED-2	Unknown	FALSE
Heavy	2019-08-29 13:17:59.456915	Genotype_Pipeline_11_07_19	P6_I16_S1	3916	1	P6_Sequence_protocol	P6_I16	P6_pbmc	B-CELL		P6_pbmc	Homo Sapiens	PBMC	Blood	56	HHC		Healthy	P6_I16		M	BioProject: PRJNA491287	https://www.ncbi.nlm.nih.gov/bioproject/?term=PRJNA491287	http://med.stanford.edu/scottboydlab.html	IgBLAST	1.7.0	TigGER	0.3.1	IMGT full - version 4/12/2018	RabHIT	0.1.1	Genotype_Pipeline_11_07_19	see reference	Repertoire	TRUE	Stanford	114	114	P6	NA	Boyd	rna	P6_Sequence_protocol	Constant region	FW-1	BIOMED-2	Unknown	FALSE
Heavy	2019-08-29 13:18:00.643461	Genotype_Pipeline_11_07_19	P6_I17_S1	59270	1	P6_Sequence_protocol	P6_I17	P6_pbmc	B-CELL		P6_pbmc	Homo Sapiens	PBMC	Blood	47	HHC		Healthy	P6_I17		M	BioProject: PRJNA491287	https://www.ncbi.nlm.nih.gov/bioproject/?term=PRJNA491287	http://med.stanford.edu/scottboydlab.html	IgBLAST	1.7.0	TigGER	0.3.1	IMGT full - version 4/12/2018	RabHIT	0.1.1	Genotype_Pipeline_11_07_19	see reference	Repertoire	TRUE	Stanford	114	114	P6	NA	Boyd	rna	P6_Sequence_protocol	Constant region	FW-1	BIOMED-2	Unknown	FALSE
Heavy	2019-08-29 13:18:02.331012	Genotype_Pipeline_11_07_19	P6_I18_S1	16134	1	P6_Sequence_protocol	P6_I18	P6_pbmc	B-CELL		P6_pbmc	Homo Sapiens	PBMC	Blood	52	HHC		Healthy	P6_I18		F	BioProject: PRJNA491287	https://www.ncbi.nlm.nih.gov/bioproject/?term=PRJNA491287	http://med.stanford.edu/scottboydlab.html	IgBLAST	1.7.0	TigGER	0.3.1	IMGT full - version 4/12/2018	RabHIT	0.1.1	Genotype_Pipeline_11_07_19	see reference	Repertoire	TRUE	Stanford	114	114	P6	NA	Boyd	rna	P6_Sequence_protocol	Constant region	FW-1	BIOMED-2	Unknown	FALSE
Heavy	2019-08-29 13:18:03.905669	Genotype_Pipeline_11_07_19	P6_I19_S1	18002	1	P6_Sequence_protocol	P6_I19	P6_pbmc	B-CELL		P6_pbmc	Homo Sapiens	PBMC	Blood	52	HHC		Healthy	P6_I19		M	BioProject: PRJNA491287	https://www.ncbi.nlm.nih.gov/bioproject/?term=PRJNA491287	http://med.stanford.edu/scottboydlab.html	IgBLAST	1.7.0	TigGER	0.3.1	IMGT full - version 4/12/2018	RabHIT	0.1.1	Genotype_Pipeline_11_07_19	see reference	Repertoire	TRUE	Stanford	114	114	P6	NA	Boyd	rna	P6_Sequence_protocol	Constant region	FW-1	BIOMED-2	Unknown	FALSE
Heavy	2019-08-29 13:17:37.655801	Genotype_Pipeline_11_07_19	P6_I1_S1	16255	1	P6_Sequence_protocol	P6_I1	P6_pbmc	B-CELL		P6_pbmc	Homo Sapiens	PBMC	Blood	59	HHC		Healthy	P6_I1		M	BioProject: PRJNA491287	https://www.ncbi.nlm.nih.gov/bioproject/?term=PRJNA491287	http://med.stanford.edu/scottboydlab.html	IgBLAST	1.7.0	TigGER	0.3.1	IMGT full - version 4/12/2018	RabHIT	0.1.1	Genotype_Pipeline_11_07_19	see reference	Repertoire	TRUE	Stanford	114	114	P6	NA	Boyd	rna	P6_Sequence_protocol	Constant region	FW-1	BIOMED-2	Unknown	FALSE
Heavy	2019-08-29 13:18:07.448815	Genotype_Pipeline_11_07_19	P6_I20_S1	24549	1	P6_Sequence_protocol	P6_I20	P6_pbmc	B-CELL		P6_pbmc	Homo Sapiens	PBMC	Blood	17	HHC		Healthy	P6_I20		F	BioProject: PRJNA491287	https://www.ncbi.nlm.nih.gov/bioproject/?term=PRJNA491287	http://med.stanford.edu/scottboydlab.html	IgBLAST	1.7.0	TigGER	0.3.1	IMGT full - version 4/12/2018	RabHIT	0.1.1	Genotype_Pipeline_11_07_19	see reference	Repertoire	TRUE	Stanford	114	114	P6	NA	Boyd	rna	P6_Sequence_protocol	Constant region	FW-1	BIOMED-2	Unknown	FALSE
Heavy	2019-08-29 13:18:08.905240	Genotype_Pipeline_11_07_19	P6_I21_S1	23663	1	P6_Sequence_protocol	P6_I21	P6_pbmc	B-CELL		P6_pbmc	Homo Sapiens	PBMC	Blood	34	HHC		Healthy	P6_I21		M	BioProject: PRJNA491287	https://www.ncbi.nlm.nih.gov/bioproject/?term=PRJNA491287	http://med.stanford.edu/scottboydlab.html	IgBLAST	1.7.0	TigGER	0.3.1	IMGT full - version 4/12/2018	RabHIT	0.1.1	Genotype_Pipeline_11_07_19	see reference	Repertoire	TRUE	Stanford	114	114	P6	NA	Boyd	rna	P6_Sequence_protocol	Constant region	FW-1	BIOMED-2	Unknown	FALSE
Heavy	2019-08-29 13:18:10.378355	Genotype_Pipeline_11_07_19	P6_I22_S1	25673	1	P6_Sequence_protocol	P6_I22	P6_pbmc	B-CELL		P6_pbmc	Homo Sapiens	PBMC	Blood	40	HHC		Healthy	P6_I22		M	BioProject: PRJNA491287	https://www.ncbi.nlm.nih.gov/bioproject/?term=PRJNA491287	http://med.stanford.edu/scottboydlab.html	IgBLAST	1.7.0	TigGER	0.3.1	IMGT full - version 4/12/2018	RabHIT	0.1.1	Genotype_Pipeline_11_07_19	see reference	Repertoire	TRUE	Stanford	114	114	P6	NA	Boyd	rna	P6_Sequence_protocol	Constant region	FW-1	BIOMED-2	Unknown	FALSE
Heavy	2019-08-29 13:18:11.853786	Genotype_Pipeline_11_07_19	P6_I23_S1	2111	1	P6_Sequence_protocol	P6_I23	P6_pbmc	B-CELL		P6_pbmc	Homo Sapiens	PBMC	Blood	60	HHC		Healthy	P6_I23		M	BioProject: PRJNA491287	https://www.ncbi.nlm.nih.gov/bioproject/?term=PRJNA491287	http://med.stanford.edu/scottboydlab.html	IgBLAST	1.7.0	TigGER	0.3.1	IMGT full - version 4/12/2018	RabHIT	0.1.1	Genotype_Pipeline_11_07_19	see reference	Repertoire	TRUE	Stanford	114	114	P6	NA	Boyd	rna	P6_Sequence_protocol	Constant region	FW-1	BIOMED-2	Unknown	FALSE
Heavy	2019-08-29 13:18:13.291476	Genotype_Pipeline_11_07_19	P6_I25_S1	3094	1	P6_Sequence_protocol	P6_I25	P6_pbmc	B-CELL		P6_pbmc	Homo Sapiens	PBMC	Blood	35	HHC		Healthy	P6_I25		F	BioProject: PRJNA491287	https://www.ncbi.nlm.nih.gov/bioproject/?term=PRJNA491287	http://med.stanford.edu/scottboydlab.html	IgBLAST	1.7.0	TigGER	0.3.1	IMGT full - version 4/12/2018	RabHIT	0.1.1	Genotype_Pipeline_11_07_19	see reference	Repertoire	TRUE	Stanford	114	114	P6	NA	Boyd	rna	P6_Sequence_protocol	Constant region	FW-1	BIOMED-2	Unknown	FALSE
Heavy	2019-08-29 13:18:14.777485	Genotype_Pipeline_11_07_19	P6_I26_S1	28960	1	P6_Sequence_protocol	P6_I26	P6_pbmc	B-CELL		P6_pbmc	Homo Sapiens	PBMC	Blood	68	HHC		Healthy	P6_I26		M	BioProject: PRJNA491287	https://www.ncbi.nlm.nih.gov/bioproject/?term=PRJNA491287	http://med.stanford.edu/scottboydlab.html	IgBLAST	1.7.0	TigGER	0.3.1	IMGT full - version 4/12/2018	RabHIT	0.1.1	Genotype_Pipeline_11_07_19	see reference	Repertoire	TRUE	Stanford	114	114	P6	NA	Boyd	rna	P6_Sequence_protocol	Constant region	FW-1	BIOMED-2	Unknown	FALSE
Heavy	2019-08-29 13:18:16.808792	Genotype_Pipeline_11_07_19	P6_I27_S1	29176	1	P6_Sequence_protocol	P6_I27	P6_pbmc	B-CELL		P6_pbmc	Homo Sapiens	PBMC	Blood	25	HHC		Healthy	P6_I27		F	BioProject: PRJNA491287	https://www.ncbi.nlm.nih.gov/bioproject/?term=PRJNA491287	http://med.stanford.edu/scottboydlab.html	IgBLAST	1.7.0	TigGER	0.3.1	IMGT full - version 4/12/2018	RabHIT	0.1.1	Genotype_Pipeline_11_07_19	see reference	Repertoire	TRUE	Stanford	114	114	P6	NA	Boyd	rna	P6_Sequence_protocol	Constant region	FW-1	BIOMED-2	Unknown	FALSE
Heavy	2019-08-29 13:18:18.508122	Genotype_Pipeline_11_07_19	P6_I28_S1	38643	1	P6_Sequence_protocol	P6_I28	P6_pbmc	B-CELL		P6_pbmc	Homo Sapiens	PBMC	Blood	54	HHC		Healthy	P6_I28		F	BioProject: PRJNA491287	https://www.ncbi.nlm.nih.gov/bioproject/?term=PRJNA491287	http://med.stanford.edu/scottboydlab.html	IgBLAST	1.7.0	TigGER	0.3.1	IMGT full - version 4/12/2018	RabHIT	0.1.1	Genotype_Pipeline_11_07_19	see reference	Repertoire	TRUE	Stanford	114	114	P6	NA	Boyd	rna	P6_Sequence_protocol	Constant region	FW-1	BIOMED-2	Unknown	FALSE
Heavy	2019-08-29 13:18:20.378024	Genotype_Pipeline_11_07_19	P6_I29_S1	22488	1	P6_Sequence_protocol	P6_I29	P6_pbmc	B-CELL		P6_pbmc	Homo Sapiens	PBMC	Blood	66	HHC		Healthy	P6_I29		M	BioProject: PRJNA491287	https://www.ncbi.nlm.nih.gov/bioproject/?term=PRJNA491287	http://med.stanford.edu/scottboydlab.html	IgBLAST	1.7.0	TigGER	0.3.1	IMGT full - version 4/12/2018	RabHIT	0.1.1	Genotype_Pipeline_11_07_19	see reference	Repertoire	TRUE	Stanford	114	114	P6	NA	Boyd	rna	P6_Sequence_protocol	Constant region	FW-1	BIOMED-2	Unknown	FALSE
Heavy	2019-08-29 13:18:05.297651	Genotype_Pipeline_11_07_19	P6_I2_S1	125392	1	P6_Sequence_protocol	P6_I2	P6_pbmc	B-CELL		P6_pbmc	Homo Sapiens	PBMC	Blood	60	HHC		Healthy	P6_I2		M	BioProject: PRJNA491287	https://www.ncbi.nlm.nih.gov/bioproject/?term=PRJNA491287	http://med.stanford.edu/scottboydlab.html	IgBLAST	1.7.0	TigGER	0.3.1	IMGT full - version 4/12/2018	RabHIT	0.1.1	Genotype_Pipeline_11_07_19	see reference	Repertoire	TRUE	Stanford	114	114	P6	NA	Boyd	rna	P6_Sequence_protocol	Constant region	FW-1	BIOMED-2	Unknown	FALSE
Heavy	2019-08-29 13:18:23.561757	Genotype_Pipeline_11_07_19	P6_I30_S1	23429	1	P6_Sequence_protocol	P6_I30	P6_pbmc	B-CELL		P6_pbmc	Homo Sapiens	PBMC	Blood	37	HHC		Healthy	P6_I30		F	BioProject: PRJNA491287	https://www.ncbi.nlm.nih.gov/bioproject/?term=PRJNA491287	http://med.stanford.edu/scottboydlab.html	IgBLAST	1.7.0	TigGER	0.3.1	IMGT full - version 4/12/2018	RabHIT	0.1.1	Genotype_Pipeline_11_07_19	see reference	Repertoire	TRUE	Stanford	114	114	P6	NA	Boyd	rna	P6_Sequence_protocol	Constant region	FW-1	BIOMED-2	Unknown	FALSE
Heavy	2019-08-29 13:18:25.411968	Genotype_Pipeline_11_07_19	P6_I31_S1	27289	1	P6_Sequence_protocol	P6_I31	P6_pbmc	B-CELL		P6_pbmc	Homo Sapiens	PBMC	Blood	55	HHC		Healthy	P6_I31		F	BioProject: PRJNA491287	https://www.ncbi.nlm.nih.gov/bioproject/?term=PRJNA491287	http://med.stanford.edu/scottboydlab.html	IgBLAST	1.7.0	TigGER	0.3.1	IMGT full - version 4/12/2018	RabHIT	0.1.1	Genotype_Pipeline_11_07_19	see reference	Repertoire	TRUE	Stanford	114	114	P6	NA	Boyd	rna	P6_Sequence_protocol	Constant region	FW-1	BIOMED-2	Unknown	FALSE
Heavy	2019-08-29 13:18:27.246418	Genotype_Pipeline_11_07_19	P6_I32_S1	24024	1	P6_Sequence_protocol	P6_I32	P6_pbmc	B-CELL		P6_pbmc	Homo Sapiens	PBMC	Blood	43	HHC		Healthy	P6_I32		F	BioProject: PRJNA491287	https://www.ncbi.nlm.nih.gov/bioproject/?term=PRJNA491287	http://med.stanford.edu/scottboydlab.html	IgBLAST	1.7.0	TigGER	0.3.1	IMGT full - version 4/12/2018	RabHIT	0.1.1	Genotype_Pipeline_11_07_19	see reference	Repertoire	TRUE	Stanford	114	114	P6	NA	Boyd	rna	P6_Sequence_protocol	Constant region	FW-1	BIOMED-2	Unknown	FALSE
Heavy	2019-08-29 13:18:28.794392	Genotype_Pipeline_11_07_19	P6_I33_S1	43409	1	P6_Sequence_protocol	P6_I33	P6_pbmc	B-CELL		P6_pbmc	Homo Sapiens	PBMC	Blood	63	HHC		Healthy	P6_I33		M	BioProject: PRJNA491287	https://www.ncbi.nlm.nih.gov/bioproject/?term=PRJNA491287	http://med.stanford.edu/scottboydlab.html	IgBLAST	1.7.0	TigGER	0.3.1	IMGT full - version 4/12/2018	RabHIT	0.1.1	Genotype_Pipeline_11_07_19	see reference	Repertoire	TRUE	Stanford	114	114	P6	NA	Boyd	rna	P6_Sequence_protocol	Constant region	FW-1	BIOMED-2	Unknown	FALSE
Heavy	2019-08-29 13:18:30.593521	Genotype_Pipeline_11_07_19	P6_I34_S1	5288	1	P6_Sequence_protocol	P6_I34	P6_pbmc	B-CELL		P6_pbmc	Homo Sapiens	PBMC	Blood	45	HHC		Healthy	P6_I34		F	BioProject: PRJNA491287	https://www.ncbi.nlm.nih.gov/bioproject/?term=PRJNA491287	http://med.stanford.edu/scottboydlab.html	IgBLAST	1.7.0	TigGER	0.3.1	IMGT full - version 4/12/2018	RabHIT	0.1.1	Genotype_Pipeline_11_07_19	see reference	Repertoire	TRUE	Stanford	114	114	P6	NA	Boyd	rna	P6_Sequence_protocol	Constant region	FW-1	BIOMED-2	Unknown	FALSE
Heavy	2019-08-29 13:18:31.953805	Genotype_Pipeline_11_07_19	P6_I35_S1	43364	1	P6_Sequence_protocol	P6_I35	P6_pbmc	B-CELL		P6_pbmc	Homo Sapiens	PBMC	Blood	56	HHC		Healthy	P6_I35		F	BioProject: PRJNA491287	https://www.ncbi.nlm.nih.gov/bioproject/?term=PRJNA491287	http://med.stanford.edu/scottboydlab.html	IgBLAST	1.7.0	TigGER	0.3.1	IMGT full - version 4/12/2018	RabHIT	0.1.1	Genotype_Pipeline_11_07_19	see reference	Repertoire	TRUE	Stanford	114	114	P6	NA	Boyd	rna	P6_Sequence_protocol	Constant region	FW-1	BIOMED-2	Unknown	FALSE
Heavy	2019-08-29 13:18:33.481324	Genotype_Pipeline_11_07_19	P6_I36_S1	50318	1	P6_Sequence_protocol	P6_I36	P6_pbmc	B-CELL		P6_pbmc	Homo Sapiens	PBMC	Blood	58	HHC		Healthy	P6_I36		F	BioProject: PRJNA491287	https://www.ncbi.nlm.nih.gov/bioproject/?term=PRJNA491287	http://med.stanford.edu/scottboydlab.html	IgBLAST	1.7.0	TigGER	0.3.1	IMGT full - version 4/12/2018	RabHIT	0.1.1	Genotype_Pipeline_11_07_19	see reference	Repertoire	TRUE	Stanford	114	114	P6	NA	Boyd	rna	P6_Sequence_protocol	Constant region	FW-1	BIOMED-2	Unknown	FALSE
Heavy	2019-08-29 13:18:35.013361	Genotype_Pipeline_11_07_19	P6_I37_S1	22926	1	P6_Sequence_protocol	P6_I37	P6_pbmc	B-CELL		P6_pbmc	Homo Sapiens	PBMC	Blood	43	HHC		Healthy	P6_I37		M	BioProject: PRJNA491287	https://www.ncbi.nlm.nih.gov/bioproject/?term=PRJNA491287	http://med.stanford.edu/scottboydlab.html	IgBLAST	1.7.0	TigGER	0.3.1	IMGT full - version 4/12/2018	RabHIT	0.1.1	Genotype_Pipeline_11_07_19	see reference	Repertoire	TRUE	Stanford	114	114	P6	NA	Boyd	rna	P6_Sequence_protocol	Constant region	FW-1	BIOMED-2	Unknown	FALSE
Heavy	2019-08-29 13:18:36.693907	Genotype_Pipeline_11_07_19	P6_I38_S1	110015	1	P6_Sequence_protocol	P6_I38	P6_pbmc	B-CELL		P6_pbmc	Homo Sapiens	PBMC	Blood	61	HHC		Healthy	P6_I38		M	BioProject: PRJNA491287	https://www.ncbi.nlm.nih.gov/bioproject/?term=PRJNA491287	http://med.stanford.edu/scottboydlab.html	IgBLAST	1.7.0	TigGER	0.3.1	IMGT full - version 4/12/2018	RabHIT	0.1.1	Genotype_Pipeline_11_07_19	see reference	Repertoire	TRUE	Stanford	114	114	P6	NA	Boyd	rna	P6_Sequence_protocol	Constant region	FW-1	BIOMED-2	Unknown	FALSE
Heavy	2019-08-29 13:18:38.553600	Genotype_Pipeline_11_07_19	P6_I39_S1	39907	1	P6_Sequence_protocol	P6_I39	P6_pbmc	B-CELL		P6_pbmc	Homo Sapiens	PBMC	Blood	17	HHC		Healthy	P6_I39		F	BioProject: PRJNA491287	https://www.ncbi.nlm.nih.gov/bioproject/?term=PRJNA491287	http://med.stanford.edu/scottboydlab.html	IgBLAST	1.7.0	TigGER	0.3.1	IMGT full - version 4/12/2018	RabHIT	0.1.1	Genotype_Pipeline_11_07_19	see reference	Repertoire	TRUE	Stanford	114	114	P6	NA	Boyd	rna	P6_Sequence_protocol	Constant region	FW-1	BIOMED-2	Unknown	FALSE
Heavy	2019-08-29 13:18:21.962340	Genotype_Pipeline_11_07_19	P6_I3_S1	6369	1	P6_Sequence_protocol	P6_I3	P6_pbmc	B-CELL		P6_pbmc	Homo Sapiens	PBMC	Blood	44	HHC		Healthy	P6_I3		M	BioProject: PRJNA491287	https://www.ncbi.nlm.nih.gov/bioproject/?term=PRJNA491287	http://med.stanford.edu/scottboydlab.html	IgBLAST	1.7.0	TigGER	0.3.1	IMGT full - version 4/12/2018	RabHIT	0.1.1	Genotype_Pipeline_11_07_19	see reference	Repertoire	TRUE	Stanford	114	114	P6	NA	Boyd	rna	P6_Sequence_protocol	Constant region	FW-1	BIOMED-2	Unknown	FALSE
Heavy	2019-08-29 13:18:41.650430	Genotype_Pipeline_11_07_19	P6_I40_S1	26908	1	P6_Sequence_protocol	P6_I40	P6_pbmc	B-CELL		P6_pbmc	Homo Sapiens	PBMC	Blood	63	HHC		Healthy	P6_I40		F	BioProject: PRJNA491287	https://www.ncbi.nlm.nih.gov/bioproject/?term=PRJNA491287	http://med.stanford.edu/scottboydlab.html	IgBLAST	1.7.0	TigGER	0.3.1	IMGT full - version 4/12/2018	RabHIT	0.1.1	Genotype_Pipeline_11_07_19	see reference	Repertoire	TRUE	Stanford	114	114	P6	NA	Boyd	rna	P6_Sequence_protocol	Constant region	FW-1	BIOMED-2	Unknown	FALSE
Heavy	2019-08-29 13:18:43.302940	Genotype_Pipeline_11_07_19	P6_I41_S1	41391	1	P6_Sequence_protocol	P6_I41	P6_pbmc	B-CELL		P6_pbmc	Homo Sapiens	PBMC	Blood	61	HHC		Healthy	P6_I41		M	BioProject: PRJNA491287	https://www.ncbi.nlm.nih.gov/bioproject/?term=PRJNA491287	http://med.stanford.edu/scottboydlab.html	IgBLAST	1.7.0	TigGER	0.3.1	IMGT full - version 4/12/2018	RabHIT	0.1.1	Genotype_Pipeline_11_07_19	see reference	Repertoire	TRUE	Stanford	114	114	P6	NA	Boyd	rna	P6_Sequence_protocol	Constant region	FW-1	BIOMED-2	Unknown	FALSE
Heavy	2019-08-29 13:18:45.185905	Genotype_Pipeline_11_07_19	P6_I42_S1	14906	1	P6_Sequence_protocol	P6_I42	P6_pbmc	B-CELL		P6_pbmc	Homo Sapiens	PBMC	Blood	50	HHC		Healthy	P6_I42		F	BioProject: PRJNA491287	https://www.ncbi.nlm.nih.gov/bioproject/?term=PRJNA491287	http://med.stanford.edu/scottboydlab.html	IgBLAST	1.7.0	TigGER	0.3.1	IMGT full - version 4/12/2018	RabHIT	0.1.1	Genotype_Pipeline_11_07_19	see reference	Repertoire	TRUE	Stanford	114	114	P6	NA	Boyd	rna	P6_Sequence_protocol	Constant region	FW-1	BIOMED-2	Unknown	FALSE
Heavy	2019-08-29 13:18:46.631489	Genotype_Pipeline_11_07_19	P6_I43_S1	45333	1	P6_Sequence_protocol	P6_I43	P6_pbmc	B-CELL		P6_pbmc	Homo Sapiens	PBMC	Blood	57	HHC		Healthy	P6_I43		F	BioProject: PRJNA491287	https://www.ncbi.nlm.nih.gov/bioproject/?term=PRJNA491287	http://med.stanford.edu/scottboydlab.html	IgBLAST	1.7.0	TigGER	0.3.1	IMGT full - version 4/12/2018	RabHIT	0.1.1	Genotype_Pipeline_11_07_19	see reference	Repertoire	TRUE	Stanford	114	114	P6	NA	Boyd	rna	P6_Sequence_protocol	Constant region	FW-1	BIOMED-2	Unknown	FALSE
Heavy	2019-08-29 13:18:48.320529	Genotype_Pipeline_11_07_19	P6_I44_S1	84830	1	P6_Sequence_protocol	P6_I44	P6_pbmc	B-CELL		P6_pbmc	Homo Sapiens	PBMC	Blood	22	HHC		Healthy	P6_I44		M	BioProject: PRJNA491287	https://www.ncbi.nlm.nih.gov/bioproject/?term=PRJNA491287	http://med.stanford.edu/scottboydlab.html	IgBLAST	1.7.0	TigGER	0.3.1	IMGT full - version 4/12/2018	RabHIT	0.1.1	Genotype_Pipeline_11_07_19	see reference	Repertoire	TRUE	Stanford	114	114	P6	NA	Boyd	rna	P6_Sequence_protocol	Constant region	FW-1	BIOMED-2	Unknown	FALSE
Heavy	2019-08-29 13:18:50.051751	Genotype_Pipeline_11_07_19	P6_I45_S1	102268	1	P6_Sequence_protocol	P6_I45	P6_pbmc	B-CELL		P6_pbmc	Homo Sapiens	PBMC	Blood	71	HHC		Healthy	P6_I45		F	BioProject: PRJNA491287	https://www.ncbi.nlm.nih.gov/bioproject/?term=PRJNA491287	http://med.stanford.edu/scottboydlab.html	IgBLAST	1.7.0	TigGER	0.3.1	IMGT full - version 4/12/2018	RabHIT	0.1.1	Genotype_Pipeline_11_07_19	see reference	Repertoire	TRUE	Stanford	114	114	P6	NA	Boyd	rna	P6_Sequence_protocol	Constant region	FW-1	BIOMED-2	Unknown	FALSE
Heavy	2019-08-29 13:18:52.144865	Genotype_Pipeline_11_07_19	P6_I46_S1	111391	1	P6_Sequence_protocol	P6_I46	P6_pbmc	B-CELL		P6_pbmc	Homo Sapiens	PBMC	Blood	60	HHC		Healthy	P6_I46		F	BioProject: PRJNA491287	https://www.ncbi.nlm.nih.gov/bioproject/?term=PRJNA491287	http://med.stanford.edu/scottboydlab.html	IgBLAST	1.7.0	TigGER	0.3.1	IMGT full - version 4/12/2018	RabHIT	0.1.1	Genotype_Pipeline_11_07_19	see reference	Repertoire	TRUE	Stanford	114	114	P6	NA	Boyd	rna	P6_Sequence_protocol	Constant region	FW-1	BIOMED-2	Unknown	FALSE
Heavy	2019-08-29 13:18:53.943360	Genotype_Pipeline_11_07_19	P6_I47_S1	40834	1	P6_Sequence_protocol	P6_I47	P6_pbmc	B-CELL		P6_pbmc	Homo Sapiens	PBMC	Blood	20	HHC		Healthy	P6_I47		M	BioProject: PRJNA491287	https://www.ncbi.nlm.nih.gov/bioproject/?term=PRJNA491287	http://med.stanford.edu/scottboydlab.html	IgBLAST	1.7.0	TigGER	0.3.1	IMGT full - version 4/12/2018	RabHIT	0.1.1	Genotype_Pipeline_11_07_19	see reference	Repertoire	TRUE	Stanford	114	114	P6	NA	Boyd	rna	P6_Sequence_protocol	Constant region	FW-1	BIOMED-2	Unknown	FALSE
Heavy	2019-08-29 13:18:55.559287	Genotype_Pipeline_11_07_19	P6_I48_S1	64608	1	P6_Sequence_protocol	P6_I48	P6_pbmc	B-CELL		P6_pbmc	Homo Sapiens	PBMC	Blood	48	HHC		Healthy	P6_I48		F	BioProject: PRJNA491287	https://www.ncbi.nlm.nih.gov/bioproject/?term=PRJNA491287	http://med.stanford.edu/scottboydlab.html	IgBLAST	1.7.0	TigGER	0.3.1	IMGT full - version 4/12/2018	RabHIT	0.1.1	Genotype_Pipeline_11_07_19	see reference	Repertoire	TRUE	Stanford	114	114	P6	NA	Boyd	rna	P6_Sequence_protocol	Constant region	FW-1	BIOMED-2	Unknown	FALSE
Heavy	2019-08-29 13:18:57.368020	Genotype_Pipeline_11_07_19	P6_I49_S1	52473	1	P6_Sequence_protocol	P6_I49	P6_pbmc	B-CELL		P6_pbmc	Homo Sapiens	PBMC	Blood	65	HHC		Healthy	P6_I49		M	BioProject: PRJNA491287	https://www.ncbi.nlm.nih.gov/bioproject/?term=PRJNA491287	http://med.stanford.edu/scottboydlab.html	IgBLAST	1.7.0	TigGER	0.3.1	IMGT full - version 4/12/2018	RabHIT	0.1.1	Genotype_Pipeline_11_07_19	see reference	Repertoire	TRUE	Stanford	114	114	P6	NA	Boyd	rna	P6_Sequence_protocol	Constant region	FW-1	BIOMED-2	Unknown	FALSE
Heavy	2019-08-29 13:18:40.027271	Genotype_Pipeline_11_07_19	P6_I4_S1	24086	1	P6_Sequence_protocol	P6_I4	P6_pbmc	B-CELL		P6_pbmc	Homo Sapiens	PBMC	Blood	68	HHC		Healthy	P6_I4		M	BioProject: PRJNA491287	https://www.ncbi.nlm.nih.gov/bioproject/?term=PRJNA491287	http://med.stanford.edu/scottboydlab.html	IgBLAST	1.7.0	TigGER	0.3.1	IMGT full - version 4/12/2018	RabHIT	0.1.1	Genotype_Pipeline_11_07_19	see reference	Repertoire	TRUE	Stanford	114	114	P6	NA	Boyd	rna	P6_Sequence_protocol	Constant region	FW-1	BIOMED-2	Unknown	FALSE
Heavy	2019-08-29 13:19:00.512243	Genotype_Pipeline_11_07_19	P6_I50_S1	41295	1	P6_Sequence_protocol	P6_I50	P6_pbmc	B-CELL		P6_pbmc	Homo Sapiens	PBMC	Blood	41	HHC		Healthy	P6_I50		M	BioProject: PRJNA491287	https://www.ncbi.nlm.nih.gov/bioproject/?term=PRJNA491287	http://med.stanford.edu/scottboydlab.html	IgBLAST	1.7.0	TigGER	0.3.1	IMGT full - version 4/12/2018	RabHIT	0.1.1	Genotype_Pipeline_11_07_19	see reference	Repertoire	TRUE	Stanford	114	114	P6	NA	Boyd	rna	P6_Sequence_protocol	Constant region	FW-1	BIOMED-2	Unknown	FALSE
Heavy	2019-08-29 13:19:02.118144	Genotype_Pipeline_11_07_19	P6_I51_S1	30455	1	P6_Sequence_protocol	P6_I51	P6_pbmc	B-CELL		P6_pbmc	Homo Sapiens	PBMC	Blood	65	HHC		Healthy	P6_I51		F	BioProject: PRJNA491287	https://www.ncbi.nlm.nih.gov/bioproject/?term=PRJNA491287	http://med.stanford.edu/scottboydlab.html	IgBLAST	1.7.0	TigGER	0.3.1	IMGT full - version 4/12/2018	RabHIT	0.1.1	Genotype_Pipeline_11_07_19	see reference	Repertoire	TRUE	Stanford	114	114	P6	NA	Boyd	rna	P6_Sequence_protocol	Constant region	FW-1	BIOMED-2	Unknown	FALSE
Heavy	2019-08-29 13:19:03.637015	Genotype_Pipeline_11_07_19	P6_I52_S1	80274	1	P6_Sequence_protocol	P6_I52	P6_pbmc	B-CELL		P6_pbmc	Homo Sapiens	PBMC	Blood	45	HHC		Healthy	P6_I52		M	BioProject: PRJNA491287	https://www.ncbi.nlm.nih.gov/bioproject/?term=PRJNA491287	http://med.stanford.edu/scottboydlab.html	IgBLAST	1.7.0	TigGER	0.3.1	IMGT full - version 4/12/2018	RabHIT	0.1.1	Genotype_Pipeline_11_07_19	see reference	Repertoire	TRUE	Stanford	114	114	P6	NA	Boyd	rna	P6_Sequence_protocol	Constant region	FW-1	BIOMED-2	Unknown	FALSE
Heavy	2019-08-29 13:19:05.610757	Genotype_Pipeline_11_07_19	P6_I53_S1	36376	1	P6_Sequence_protocol	P6_I53	P6_pbmc	B-CELL		P6_pbmc	Homo Sapiens	PBMC	Blood	66	HHC		Healthy	P6_I53		M	BioProject: PRJNA491287	https://www.ncbi.nlm.nih.gov/bioproject/?term=PRJNA491287	http://med.stanford.edu/scottboydlab.html	IgBLAST	1.7.0	TigGER	0.3.1	IMGT full - version 4/12/2018	RabHIT	0.1.1	Genotype_Pipeline_11_07_19	see reference	Repertoire	TRUE	Stanford	114	114	P6	NA	Boyd	rna	P6_Sequence_protocol	Constant region	FW-1	BIOMED-2	Unknown	FALSE
Heavy	2019-08-29 13:19:07.054943	Genotype_Pipeline_11_07_19	P6_I54_S1	71614	1	P6_Sequence_protocol	P6_I54	P6_pbmc	B-CELL		P6_pbmc	Homo Sapiens	PBMC	Blood	63	HHC		Healthy	P6_I54		F	BioProject: PRJNA491287	https://www.ncbi.nlm.nih.gov/bioproject/?term=PRJNA491287	http://med.stanford.edu/scottboydlab.html	IgBLAST	1.7.0	TigGER	0.3.1	IMGT full - version 4/12/2018	RabHIT	0.1.1	Genotype_Pipeline_11_07_19	see reference	Repertoire	TRUE	Stanford	114	114	P6	NA	Boyd	rna	P6_Sequence_protocol	Constant region	FW-1	BIOMED-2	Unknown	FALSE
Heavy	2019-08-29 13:19:08.818069	Genotype_Pipeline_11_07_19	P6_I55_S1	47959	1	P6_Sequence_protocol	P6_I55	P6_pbmc	B-CELL		P6_pbmc	Homo Sapiens	PBMC	Blood	61	HHC		Healthy	P6_I55		F	BioProject: PRJNA491287	https://www.ncbi.nlm.nih.gov/bioproject/?term=PRJNA491287	http://med.stanford.edu/scottboydlab.html	IgBLAST	1.7.0	TigGER	0.3.1	IMGT full - version 4/12/2018	RabHIT	0.1.1	Genotype_Pipeline_11_07_19	see reference	Repertoire	TRUE	Stanford	114	114	P6	NA	Boyd	rna	P6_Sequence_protocol	Constant region	FW-1	BIOMED-2	Unknown	FALSE
Heavy	2019-08-29 13:19:10.205771	Genotype_Pipeline_11_07_19	P6_I57_S1	11642	1	P6_Sequence_protocol	P6_I57	P6_pbmc	B-CELL		P6_pbmc	Homo Sapiens	PBMC	Blood	65	HHC		Healthy	P6_I57		F	BioProject: PRJNA491287	https://www.ncbi.nlm.nih.gov/bioproject/?term=PRJNA491287	http://med.stanford.edu/scottboydlab.html	IgBLAST	1.7.0	TigGER	0.3.1	IMGT full - version 4/12/2018	RabHIT	0.1.1	Genotype_Pipeline_11_07_19	see reference	Repertoire	TRUE	Stanford	114	114	P6	NA	Boyd	rna	P6_Sequence_protocol	Constant region	FW-1	BIOMED-2	Unknown	FALSE
Heavy	2019-08-29 13:19:11.988770	Genotype_Pipeline_11_07_19	P6_I58_S1	37232	1	P6_Sequence_protocol	P6_I58	P6_pbmc	B-CELL		P6_pbmc	Homo Sapiens	PBMC	Blood	54	HHC		Healthy	P6_I58		M	BioProject: PRJNA491287	https://www.ncbi.nlm.nih.gov/bioproject/?term=PRJNA491287	http://med.stanford.edu/scottboydlab.html	IgBLAST	1.7.0	TigGER	0.3.1	IMGT full - version 4/12/2018	RabHIT	0.1.1	Genotype_Pipeline_11_07_19	see reference	Repertoire	TRUE	Stanford	114	114	P6	NA	Boyd	rna	P6_Sequence_protocol	Constant region	FW-1	BIOMED-2	Unknown	FALSE
Heavy	2019-08-29 13:19:13.771342	Genotype_Pipeline_11_07_19	P6_I59_S1	22353	1	P6_Sequence_protocol	P6_I59	P6_pbmc	B-CELL		P6_pbmc	Homo Sapiens	PBMC	Blood	35	HHC		Healthy	P6_I59		M	BioProject: PRJNA491287	https://www.ncbi.nlm.nih.gov/bioproject/?term=PRJNA491287	http://med.stanford.edu/scottboydlab.html	IgBLAST	1.7.0	TigGER	0.3.1	IMGT full - version 4/12/2018	RabHIT	0.1.1	Genotype_Pipeline_11_07_19	see reference	Repertoire	TRUE	Stanford	114	114	P6	NA	Boyd	rna	P6_Sequence_protocol	Constant region	FW-1	BIOMED-2	Unknown	FALSE
Heavy	2019-08-29 13:18:59.054901	Genotype_Pipeline_11_07_19	P6_I5_S1	35916	1	P6_Sequence_protocol	P6_I5	P6_pbmc	B-CELL		P6_pbmc	Homo Sapiens	PBMC	Blood	59	HHC		Healthy	P6_I5		F	BioProject: PRJNA491287	https://www.ncbi.nlm.nih.gov/bioproject/?term=PRJNA491287	http://med.stanford.edu/scottboydlab.html	IgBLAST	1.7.0	TigGER	0.3.1	IMGT full - version 4/12/2018	RabHIT	0.1.1	Genotype_Pipeline_11_07_19	see reference	Repertoire	TRUE	Stanford	114	114	P6	NA	Boyd	rna	P6_Sequence_protocol	Constant region	FW-1	BIOMED-2	Unknown	FALSE
Heavy	2019-08-29 13:19:17.119186	Genotype_Pipeline_11_07_19	P6_I60_S1	24515	1	P6_Sequence_protocol	P6_I60	P6_pbmc	B-CELL		P6_pbmc	Homo Sapiens	PBMC	Blood	48	HHC		Healthy	P6_I60		M	BioProject: PRJNA491287	https://www.ncbi.nlm.nih.gov/bioproject/?term=PRJNA491287	http://med.stanford.edu/scottboydlab.html	IgBLAST	1.7.0	TigGER	0.3.1	IMGT full - version 4/12/2018	RabHIT	0.1.1	Genotype_Pipeline_11_07_19	see reference	Repertoire	TRUE	Stanford	114	114	P6	NA	Boyd	rna	P6_Sequence_protocol	Constant region	FW-1	BIOMED-2	Unknown	FALSE
Heavy	2019-08-29 13:19:18.819122	Genotype_Pipeline_11_07_19	P6_I61_S1	27760	1	P6_Sequence_protocol	P6_I61	P6_pbmc	B-CELL		P6_pbmc	Homo Sapiens	PBMC	Blood	63	HHC		Healthy	P6_I61		F	BioProject: PRJNA491287	https://www.ncbi.nlm.nih.gov/bioproject/?term=PRJNA491287	http://med.stanford.edu/scottboydlab.html	IgBLAST	1.7.0	TigGER	0.3.1	IMGT full - version 4/12/2018	RabHIT	0.1.1	Genotype_Pipeline_11_07_19	see reference	Repertoire	TRUE	Stanford	114	114	P6	NA	Boyd	rna	P6_Sequence_protocol	Constant region	FW-1	BIOMED-2	Unknown	FALSE
Heavy	2019-08-29 13:19:20.601862	Genotype_Pipeline_11_07_19	P6_I62_S1	45080	1	P6_Sequence_protocol	P6_I62	P6_pbmc	B-CELL		P6_pbmc	Homo Sapiens	PBMC	Blood	39	HHC		Healthy	P6_I62		F	BioProject: PRJNA491287	https://www.ncbi.nlm.nih.gov/bioproject/?term=PRJNA491287	http://med.stanford.edu/scottboydlab.html	IgBLAST	1.7.0	TigGER	0.3.1	IMGT full - version 4/12/2018	RabHIT	0.1.1	Genotype_Pipeline_11_07_19	see reference	Repertoire	TRUE	Stanford	114	114	P6	NA	Boyd	rna	P6_Sequence_protocol	Constant region	FW-1	BIOMED-2	Unknown	FALSE
Heavy	2019-08-29 13:19:22.193253	Genotype_Pipeline_11_07_19	P6_I63_S1	9642	1	P6_Sequence_protocol	P6_I63	P6_pbmc	B-CELL		P6_pbmc	Homo Sapiens	PBMC	Blood	53	HHC		Healthy	P6_I63		F	BioProject: PRJNA491287	https://www.ncbi.nlm.nih.gov/bioproject/?term=PRJNA491287	http://med.stanford.edu/scottboydlab.html	IgBLAST	1.7.0	TigGER	0.3.1	IMGT full - version 4/12/2018	RabHIT	0.1.1	Genotype_Pipeline_11_07_19	see reference	Repertoire	TRUE	Stanford	114	114	P6	NA	Boyd	rna	P6_Sequence_protocol	Constant region	FW-1	BIOMED-2	Unknown	FALSE
Heavy	2019-08-29 13:19:23.742074	Genotype_Pipeline_11_07_19	P6_I64_S1	35545	1	P6_Sequence_protocol	P6_I64	P6_pbmc	B-CELL		P6_pbmc	Homo Sapiens	PBMC	Blood	65	HHC		Healthy	P6_I64		M	BioProject: PRJNA491287	https://www.ncbi.nlm.nih.gov/bioproject/?term=PRJNA491287	http://med.stanford.edu/scottboydlab.html	IgBLAST	1.7.0	TigGER	0.3.1	IMGT full - version 4/12/2018	RabHIT	0.1.1	Genotype_Pipeline_11_07_19	see reference	Repertoire	TRUE	Stanford	114	114	P6	NA	Boyd	rna	P6_Sequence_protocol	Constant region	FW-1	BIOMED-2	Unknown	FALSE
Heavy	2019-08-29 13:19:25.800131	Genotype_Pipeline_11_07_19	P6_I65_S1	66110	1	P6_Sequence_protocol	P6_I65	P6_pbmc	B-CELL		P6_pbmc	Homo Sapiens	PBMC	Blood	26	HHC		Healthy	P6_I65		M	BioProject: PRJNA491287	https://www.ncbi.nlm.nih.gov/bioproject/?term=PRJNA491287	http://med.stanford.edu/scottboydlab.html	IgBLAST	1.7.0	TigGER	0.3.1	IMGT full - version 4/12/2018	RabHIT	0.1.1	Genotype_Pipeline_11_07_19	see reference	Repertoire	TRUE	Stanford	114	114	P6	NA	Boyd	rna	P6_Sequence_protocol	Constant region	FW-1	BIOMED-2	Unknown	FALSE
Heavy	2019-08-29 13:19:28.040173	Genotype_Pipeline_11_07_19	P6_I67_S1	31929	1	P6_Sequence_protocol	P6_I67	P6_pbmc	B-CELL		P6_pbmc	Homo Sapiens	PBMC	Blood	74	HHC		Healthy	P6_I67		F	BioProject: PRJNA491287	https://www.ncbi.nlm.nih.gov/bioproject/?term=PRJNA491287	http://med.stanford.edu/scottboydlab.html	IgBLAST	1.7.0	TigGER	0.3.1	IMGT full - version 4/12/2018	RabHIT	0.1.1	Genotype_Pipeline_11_07_19	see reference	Repertoire	TRUE	Stanford	114	114	P6	NA	Boyd	rna	P6_Sequence_protocol	Constant region	FW-1	BIOMED-2	Unknown	FALSE
Heavy	2019-08-29 13:19:29.895601	Genotype_Pipeline_11_07_19	P6_I68_S1	61472	1	P6_Sequence_protocol	P6_I68	P6_pbmc	B-CELL		P6_pbmc	Homo Sapiens	PBMC	Blood	54	HHC		Healthy	P6_I68		M	BioProject: PRJNA491287	https://www.ncbi.nlm.nih.gov/bioproject/?term=PRJNA491287	http://med.stanford.edu/scottboydlab.html	IgBLAST	1.7.0	TigGER	0.3.1	IMGT full - version 4/12/2018	RabHIT	0.1.1	Genotype_Pipeline_11_07_19	see reference	Repertoire	TRUE	Stanford	114	114	P6	NA	Boyd	rna	P6_Sequence_protocol	Constant region	FW-1	BIOMED-2	Unknown	FALSE
Heavy	2019-08-29 13:19:31.516162	Genotype_Pipeline_11_07_19	P6_I69_S1	95261	1	P6_Sequence_protocol	P6_I69	P6_pbmc	B-CELL		P6_pbmc	Homo Sapiens	PBMC	Blood	55	HHC		Healthy	P6_I69		M	BioProject: PRJNA491287	https://www.ncbi.nlm.nih.gov/bioproject/?term=PRJNA491287	http://med.stanford.edu/scottboydlab.html	IgBLAST	1.7.0	TigGER	0.3.1	IMGT full - version 4/12/2018	RabHIT	0.1.1	Genotype_Pipeline_11_07_19	see reference	Repertoire	TRUE	Stanford	114	114	P6	NA	Boyd	rna	P6_Sequence_protocol	Constant region	FW-1	BIOMED-2	Unknown	FALSE
Heavy	2019-08-29 13:19:15.384501	Genotype_Pipeline_11_07_19	P6_I6_S1	37430	1	P6_Sequence_protocol	P6_I6	P6_pbmc	B-CELL		P6_pbmc	Homo Sapiens	PBMC	Blood	58	HHC		Healthy	P6_I6		M	BioProject: PRJNA491287	https://www.ncbi.nlm.nih.gov/bioproject/?term=PRJNA491287	http://med.stanford.edu/scottboydlab.html	IgBLAST	1.7.0	TigGER	0.3.1	IMGT full - version 4/12/2018	RabHIT	0.1.1	Genotype_Pipeline_11_07_19	see reference	Repertoire	TRUE	Stanford	114	114	P6	NA	Boyd	rna	P6_Sequence_protocol	Constant region	FW-1	BIOMED-2	Unknown	FALSE
Heavy	2019-08-29 13:19:35.299110	Genotype_Pipeline_11_07_19	P6_I70_S1	105353	1	P6_Sequence_protocol	P6_I70	P6_pbmc	B-CELL		P6_pbmc	Homo Sapiens	PBMC	Blood	43	HHC		Healthy	P6_I70		M	BioProject: PRJNA491287	https://www.ncbi.nlm.nih.gov/bioproject/?term=PRJNA491287	http://med.stanford.edu/scottboydlab.html	IgBLAST	1.7.0	TigGER	0.3.1	IMGT full - version 4/12/2018	RabHIT	0.1.1	Genotype_Pipeline_11_07_19	see reference	Repertoire	TRUE	Stanford	114	114	P6	NA	Boyd	rna	P6_Sequence_protocol	Constant region	FW-1	BIOMED-2	Unknown	FALSE
Heavy	2019-08-29 13:19:37.337782	Genotype_Pipeline_11_07_19	P6_I71_S1	35734	1	P6_Sequence_protocol	P6_I71	P6_pbmc	B-CELL		P6_pbmc	Homo Sapiens	PBMC	Blood	78	HHC		Healthy	P6_I71		F	BioProject: PRJNA491287	https://www.ncbi.nlm.nih.gov/bioproject/?term=PRJNA491287	http://med.stanford.edu/scottboydlab.html	IgBLAST	1.7.0	TigGER	0.3.1	IMGT full - version 4/12/2018	RabHIT	0.1.1	Genotype_Pipeline_11_07_19	see reference	Repertoire	TRUE	Stanford	114	114	P6	NA	Boyd	rna	P6_Sequence_protocol	Constant region	FW-1	BIOMED-2	Unknown	FALSE
Heavy	2019-08-29 13:19:39.012602	Genotype_Pipeline_11_07_19	P6_I72_S1	48048	1	P6_Sequence_protocol	P6_I72	P6_pbmc	B-CELL		P6_pbmc	Homo Sapiens	PBMC	Blood	60	HHC		Healthy	P6_I72		M	BioProject: PRJNA491287	https://www.ncbi.nlm.nih.gov/bioproject/?term=PRJNA491287	http://med.stanford.edu/scottboydlab.html	IgBLAST	1.7.0	TigGER	0.3.1	IMGT full - version 4/12/2018	RabHIT	0.1.1	Genotype_Pipeline_11_07_19	see reference	Repertoire	TRUE	Stanford	114	114	P6	NA	Boyd	rna	P6_Sequence_protocol	Constant region	FW-1	BIOMED-2	Unknown	FALSE
Heavy	2019-08-29 13:19:40.952224	Genotype_Pipeline_11_07_19	P6_I73_S1	57246	1	P6_Sequence_protocol	P6_I73	P6_pbmc	B-CELL		P6_pbmc	Homo Sapiens	PBMC	Blood	37	HHC		Healthy	P6_I73		M	BioProject: PRJNA491287	https://www.ncbi.nlm.nih.gov/bioproject/?term=PRJNA491287	http://med.stanford.edu/scottboydlab.html	IgBLAST	1.7.0	TigGER	0.3.1	IMGT full - version 4/12/2018	RabHIT	0.1.1	Genotype_Pipeline_11_07_19	see reference	Repertoire	TRUE	Stanford	114	114	P6	NA	Boyd	rna	P6_Sequence_protocol	Constant region	FW-1	BIOMED-2	Unknown	FALSE
Heavy	2019-08-29 13:19:42.516271	Genotype_Pipeline_11_07_19	P6_I74_S1	40416	1	P6_Sequence_protocol	P6_I74	P6_pbmc	B-CELL		P6_pbmc	Homo Sapiens	PBMC	Blood	69	HHC		Healthy	P6_I74		M	BioProject: PRJNA491287	https://www.ncbi.nlm.nih.gov/bioproject/?term=PRJNA491287	http://med.stanford.edu/scottboydlab.html	IgBLAST	1.7.0	TigGER	0.3.1	IMGT full - version 4/12/2018	RabHIT	0.1.1	Genotype_Pipeline_11_07_19	see reference	Repertoire	TRUE	Stanford	114	114	P6	NA	Boyd	rna	P6_Sequence_protocol	Constant region	FW-1	BIOMED-2	Unknown	FALSE
Heavy	2019-08-29 13:19:44.209758	Genotype_Pipeline_11_07_19	P6_I75_S1	39649	1	P6_Sequence_protocol	P6_I75	P6_pbmc	B-CELL		P6_pbmc	Homo Sapiens	PBMC	Blood	48	HHC		Healthy	P6_I75		F	BioProject: PRJNA491287	https://www.ncbi.nlm.nih.gov/bioproject/?term=PRJNA491287	http://med.stanford.edu/scottboydlab.html	IgBLAST	1.7.0	TigGER	0.3.1	IMGT full - version 4/12/2018	RabHIT	0.1.1	Genotype_Pipeline_11_07_19	see reference	Repertoire	TRUE	Stanford	114	114	P6	NA	Boyd	rna	P6_Sequence_protocol	Constant region	FW-1	BIOMED-2	Unknown	FALSE
Heavy	2019-08-29 13:19:45.709079	Genotype_Pipeline_11_07_19	P6_I76_S1	30641	1	P6_Sequence_protocol	P6_I76	P6_pbmc	B-CELL		P6_pbmc	Homo Sapiens	PBMC	Blood	52	HHC		Healthy	P6_I76		M	BioProject: PRJNA491287	https://www.ncbi.nlm.nih.gov/bioproject/?term=PRJNA491287	http://med.stanford.edu/scottboydlab.html	IgBLAST	1.7.0	TigGER	0.3.1	IMGT full - version 4/12/2018	RabHIT	0.1.1	Genotype_Pipeline_11_07_19	see reference	Repertoire	TRUE	Stanford	114	114	P6	NA	Boyd	rna	P6_Sequence_protocol	Constant region	FW-1	BIOMED-2	Unknown	FALSE
Heavy	2019-08-29 13:19:47.496471	Genotype_Pipeline_11_07_19	P6_I77_S1	49073	1	P6_Sequence_protocol	P6_I77	P6_pbmc	B-CELL		P6_pbmc	Homo Sapiens	PBMC	Blood	62	HHC		Healthy	P6_I77		M	BioProject: PRJNA491287	https://www.ncbi.nlm.nih.gov/bioproject/?term=PRJNA491287	http://med.stanford.edu/scottboydlab.html	IgBLAST	1.7.0	TigGER	0.3.1	IMGT full - version 4/12/2018	RabHIT	0.1.1	Genotype_Pipeline_11_07_19	see reference	Repertoire	TRUE	Stanford	114	114	P6	NA	Boyd	rna	P6_Sequence_protocol	Constant region	FW-1	BIOMED-2	Unknown	FALSE
Heavy	2019-08-29 13:19:49.398154	Genotype_Pipeline_11_07_19	P6_I78_S1	49571	1	P6_Sequence_protocol	P6_I78	P6_pbmc	B-CELL		P6_pbmc	Homo Sapiens	PBMC	Blood	52	HHC		Healthy	P6_I78		F	BioProject: PRJNA491287	https://www.ncbi.nlm.nih.gov/bioproject/?term=PRJNA491287	http://med.stanford.edu/scottboydlab.html	IgBLAST	1.7.0	TigGER	0.3.1	IMGT full - version 4/12/2018	RabHIT	0.1.1	Genotype_Pipeline_11_07_19	see reference	Repertoire	TRUE	Stanford	114	114	P6	NA	Boyd	rna	P6_Sequence_protocol	Constant region	FW-1	BIOMED-2	Unknown	FALSE
Heavy	2019-08-29 13:19:51.003411	Genotype_Pipeline_11_07_19	P6_I79_S1	87896	1	P6_Sequence_protocol	P6_I79	P6_pbmc	B-CELL		P6_pbmc	Homo Sapiens	PBMC	Blood	63	HHC		Healthy	P6_I79		F	BioProject: PRJNA491287	https://www.ncbi.nlm.nih.gov/bioproject/?term=PRJNA491287	http://med.stanford.edu/scottboydlab.html	IgBLAST	1.7.0	TigGER	0.3.1	IMGT full - version 4/12/2018	RabHIT	0.1.1	Genotype_Pipeline_11_07_19	see reference	Repertoire	TRUE	Stanford	114	114	P6	NA	Boyd	rna	P6_Sequence_protocol	Constant region	FW-1	BIOMED-2	Unknown	FALSE
Heavy	2019-08-29 13:19:33.537893	Genotype_Pipeline_11_07_19	P6_I7_S1	5461	1	P6_Sequence_protocol	P6_I7	P6_pbmc	B-CELL		P6_pbmc	Homo Sapiens	PBMC	Blood	30	HHC		Healthy	P6_I7		F	BioProject: PRJNA491287	https://www.ncbi.nlm.nih.gov/bioproject/?term=PRJNA491287	http://med.stanford.edu/scottboydlab.html	IgBLAST	1.7.0	TigGER	0.3.1	IMGT full - version 4/12/2018	RabHIT	0.1.1	Genotype_Pipeline_11_07_19	see reference	Repertoire	TRUE	Stanford	114	114	P6	NA	Boyd	rna	P6_Sequence_protocol	Constant region	FW-1	BIOMED-2	Unknown	FALSE
Heavy	2019-08-29 13:19:54.664055	Genotype_Pipeline_11_07_19	P6_I80_S1	90696	1	P6_Sequence_protocol	P6_I80	P6_pbmc	B-CELL		P6_pbmc	Homo Sapiens	PBMC	Blood	59	HHC		Healthy	P6_I80		M	BioProject: PRJNA491287	https://www.ncbi.nlm.nih.gov/bioproject/?term=PRJNA491287	http://med.stanford.edu/scottboydlab.html	IgBLAST	1.7.0	TigGER	0.3.1	IMGT full - version 4/12/2018	RabHIT	0.1.1	Genotype_Pipeline_11_07_19	see reference	Repertoire	TRUE	Stanford	114	114	P6	NA	Boyd	rna	P6_Sequence_protocol	Constant region	FW-1	BIOMED-2	Unknown	FALSE
Heavy	2019-08-29 13:19:56.286216	Genotype_Pipeline_11_07_19	P6_I82_S1	105697	1	P6_Sequence_protocol	P6_I82	P6_pbmc	B-CELL		P6_pbmc	Homo Sapiens	PBMC	Blood	49	HHC		Healthy	P6_I82		M	BioProject: PRJNA491287	https://www.ncbi.nlm.nih.gov/bioproject/?term=PRJNA491287	http://med.stanford.edu/scottboydlab.html	IgBLAST	1.7.0	TigGER	0.3.1	IMGT full - version 4/12/2018	RabHIT	0.1.1	Genotype_Pipeline_11_07_19	see reference	Repertoire	TRUE	Stanford	114	114	P6	NA	Boyd	rna	P6_Sequence_protocol	Constant region	FW-1	BIOMED-2	Unknown	FALSE
Heavy	2019-08-29 13:19:52.998008	Genotype_Pipeline_11_07_19	P6_I8_S1	19569	1	P6_Sequence_protocol	P6_I8	P6_pbmc	B-CELL		P6_pbmc	Homo Sapiens	PBMC	Blood	19	HHC		Healthy	P6_I8		F	BioProject: PRJNA491287	https://www.ncbi.nlm.nih.gov/bioproject/?term=PRJNA491287	http://med.stanford.edu/scottboydlab.html	IgBLAST	1.7.0	TigGER	0.3.1	IMGT full - version 4/12/2018	RabHIT	0.1.1	Genotype_Pipeline_11_07_19	see reference	Repertoire	TRUE	Stanford	114	114	P6	NA	Boyd	rna	P6_Sequence_protocol	Constant region	FW-1	BIOMED-2	Unknown	FALSE
Heavy	2019-08-29 13:19:59.656098	Genotype_Pipeline_11_07_19	P6_I91_S1	101402	1	P6_Sequence_protocol	P6_I91	P6_pbmc	B-CELL		P6_pbmc	Homo Sapiens	PBMC	Blood	44	HHC		Healthy	P6_I91		M	BioProject: PRJNA491287	https://www.ncbi.nlm.nih.gov/bioproject/?term=PRJNA491287	http://med.stanford.edu/scottboydlab.html	IgBLAST	1.7.0	TigGER	0.3.1	IMGT full - version 4/12/2018	RabHIT	0.1.1	Genotype_Pipeline_11_07_19	see reference	Repertoire	TRUE	Stanford	114	114	P6	NA	Boyd	rna	P6_Sequence_protocol	Constant region	FW-1	BIOMED-2	Unknown	FALSE
Heavy	2019-08-29 13:20:01.593943	Genotype_Pipeline_11_07_19	P6_I92_S1	42456	1	P6_Sequence_protocol	P6_I92	P6_pbmc	B-CELL		P6_pbmc	Homo Sapiens	PBMC	Blood	59	HHC		Healthy	P6_I92		F	BioProject: PRJNA491287	https://www.ncbi.nlm.nih.gov/bioproject/?term=PRJNA491287	http://med.stanford.edu/scottboydlab.html	IgBLAST	1.7.0	TigGER	0.3.1	IMGT full - version 4/12/2018	RabHIT	0.1.1	Genotype_Pipeline_11_07_19	see reference	Repertoire	TRUE	Stanford	114	114	P6	NA	Boyd	rna	P6_Sequence_protocol	Constant region	FW-1	BIOMED-2	Unknown	FALSE
Heavy	2019-08-29 13:20:03.562663	Genotype_Pipeline_11_07_19	P6_I93_S1	49699	1	P6_Sequence_protocol	P6_I93	P6_pbmc	B-CELL		P6_pbmc	Homo Sapiens	PBMC	Blood	50	HHC		Healthy	P6_I93		M	BioProject: PRJNA491287	https://www.ncbi.nlm.nih.gov/bioproject/?term=PRJNA491287	http://med.stanford.edu/scottboydlab.html	IgBLAST	1.7.0	TigGER	0.3.1	IMGT full - version 4/12/2018	RabHIT	0.1.1	Genotype_Pipeline_11_07_19	see reference	Repertoire	TRUE	Stanford	114	114	P6	NA	Boyd	rna	P6_Sequence_protocol	Constant region	FW-1	BIOMED-2	Unknown	FALSE
Heavy	2019-08-29 13:20:05.039466	Genotype_Pipeline_11_07_19	P6_I94_S1	5968	1	P6_Sequence_protocol	P6_I94	P6_pbmc	B-CELL		P6_pbmc	Homo Sapiens	PBMC	Blood	27	HHC		Healthy	P6_I94		M	BioProject: PRJNA491287	https://www.ncbi.nlm.nih.gov/bioproject/?term=PRJNA491287	http://med.stanford.edu/scottboydlab.html	IgBLAST	1.7.0	TigGER	0.3.1	IMGT full - version 4/12/2018	RabHIT	0.1.1	Genotype_Pipeline_11_07_19	see reference	Repertoire	TRUE	Stanford	114	114	P6	NA	Boyd	rna	P6_Sequence_protocol	Constant region	FW-1	BIOMED-2	Unknown	FALSE
Heavy	2019-08-29 13:20:06.378352	Genotype_Pipeline_11_07_19	P6_I95_S1	13687	1	P6_Sequence_protocol	P6_I95	P6_pbmc	B-CELL		P6_pbmc	Homo Sapiens	PBMC	Blood	22	HHC		Healthy	P6_I95		M	BioProject: PRJNA491287	https://www.ncbi.nlm.nih.gov/bioproject/?term=PRJNA491287	http://med.stanford.edu/scottboydlab.html	IgBLAST	1.7.0	TigGER	0.3.1	IMGT full - version 4/12/2018	RabHIT	0.1.1	Genotype_Pipeline_11_07_19	see reference	Repertoire	TRUE	Stanford	114	114	P6	NA	Boyd	rna	P6_Sequence_protocol	Constant region	FW-1	BIOMED-2	Unknown	FALSE
Heavy	2019-08-29 13:20:07.894779	Genotype_Pipeline_11_07_19	P6_I96_S1	27217	1	P6_Sequence_protocol	P6_I96	P6_pbmc	B-CELL		P6_pbmc	Homo Sapiens	PBMC	Blood	29	HHC		Healthy	P6_I96		F	BioProject: PRJNA491287	https://www.ncbi.nlm.nih.gov/bioproject/?term=PRJNA491287	http://med.stanford.edu/scottboydlab.html	IgBLAST	1.7.0	TigGER	0.3.1	IMGT full - version 4/12/2018	RabHIT	0.1.1	Genotype_Pipeline_11_07_19	see reference	Repertoire	TRUE	Stanford	114	114	P6	NA	Boyd	rna	P6_Sequence_protocol	Constant region	FW-1	BIOMED-2	Unknown	FALSE
Heavy	2019-08-29 13:20:09.482128	Genotype_Pipeline_11_07_19	P6_I97_S1	116712	1	P6_Sequence_protocol	P6_I97	P6_pbmc	B-CELL		P6_pbmc	Homo Sapiens	PBMC	Blood	26	HHC		Healthy	P6_I97		F	BioProject: PRJNA491287	https://www.ncbi.nlm.nih.gov/bioproject/?term=PRJNA491287	http://med.stanford.edu/scottboydlab.html	IgBLAST	1.7.0	TigGER	0.3.1	IMGT full - version 4/12/2018	RabHIT	0.1.1	Genotype_Pipeline_11_07_19	see reference	Repertoire	TRUE	Stanford	114	114	P6	NA	Boyd	rna	P6_Sequence_protocol	Constant region	FW-1	BIOMED-2	Unknown	FALSE
Heavy	2019-08-29 13:20:11.122036	Genotype_Pipeline_11_07_19	P6_I98_S1	118387	1	P6_Sequence_protocol	P6_I98	P6_pbmc	B-CELL		P6_pbmc	Homo Sapiens	PBMC	Blood	27	HHC		Healthy	P6_I98		F	BioProject: PRJNA491287	https://www.ncbi.nlm.nih.gov/bioproject/?term=PRJNA491287	http://med.stanford.edu/scottboydlab.html	IgBLAST	1.7.0	TigGER	0.3.1	IMGT full - version 4/12/2018	RabHIT	0.1.1	Genotype_Pipeline_11_07_19	see reference	Repertoire	TRUE	Stanford	114	114	P6	NA	Boyd	rna	P6_Sequence_protocol	Constant region	FW-1	BIOMED-2	Unknown	FALSE
Heavy	2019-08-29 13:20:12.607810	Genotype_Pipeline_11_07_19	P6_I99_S1	60939	1	P6_Sequence_protocol	P6_I99	P6_pbmc	B-CELL		P6_pbmc	Homo Sapiens	PBMC	Blood	54	HHC		Healthy	P6_I99		M	BioProject: PRJNA491287	https://www.ncbi.nlm.nih.gov/bioproject/?term=PRJNA491287	http://med.stanford.edu/scottboydlab.html	IgBLAST	1.7.0	TigGER	0.3.1	IMGT full - version 4/12/2018	RabHIT	0.1.1	Genotype_Pipeline_11_07_19	see reference	Repertoire	TRUE	Stanford	114	114	P6	NA	Boyd	rna	P6_Sequence_protocol	Constant region	FW-1	BIOMED-2	Unknown	FALSE
Heavy	2019-08-29 13:19:58.050389	Genotype_Pipeline_11_07_19	P6_I9_S1	35553	1	P6_Sequence_protocol	P6_I9	P6_pbmc	B-CELL		P6_pbmc	Homo Sapiens	PBMC	Blood	60	HHC		Healthy	P6_I9		F	BioProject: PRJNA491287	https://www.ncbi.nlm.nih.gov/bioproject/?term=PRJNA491287	http://med.stanford.edu/scottboydlab.html	IgBLAST	1.7.0	TigGER	0.3.1	IMGT full - version 4/12/2018	RabHIT	0.1.1	Genotype_Pipeline_11_07_19	see reference	Repertoire	TRUE	Stanford	114	114	P6	NA	Boyd	rna	P6_Sequence_protocol	Constant region	FW-1	BIOMED-2	Unknown	FALSE
Heavy	2019-08-29 13:19:40.952224	Genotype_Pipeline_11_07_19	P6_I15_S1	57246	1	P6_Sequence_protocol	P6_I15	P6_pbmc	B-CELL		P6_pbmc	Homo Sapiens	PBMC	Blood		HHC		Healthy	P6_I15			BioProject: PRJNA491287	https://www.ncbi.nlm.nih.gov/bioproject/?term=PRJNA491287	http://med.stanford.edu/scottboydlab.html	IgBLAST	1.7.0	TigGER	0.3.1	IMGT full - version 4/12/2018	RabHIT	0.1.1	Genotype_Pipeline_11_07_19	see reference	Repertoire	TRUE	Stanford	114	114	P6	NA	Boyd	rna	P6_Sequence_protocol	Constant region	FW-1	BIOMED-2	Unknown	FALSE
Heavy	2019-08-29 13:19:42.516271	Genotype_Pipeline_11_07_19	P6_I24_S1	40416	1	P6_Sequence_protocol	P6_I24	P6_pbmc	B-CELL		P6_pbmc	Homo Sapiens	PBMC	Blood		HHC		Healthy	P6_I24			BioProject: PRJNA491287	https://www.ncbi.nlm.nih.gov/bioproject/?term=PRJNA491287	http://med.stanford.edu/scottboydlab.html	IgBLAST	1.7.0	TigGER	0.3.1	IMGT full - version 4/12/2018	RabHIT	0.1.1	Genotype_Pipeline_11_07_19	see reference	Repertoire	TRUE	Stanford	114	114	P6	NA	Boyd	rna	P6_Sequence_protocol	Constant region	FW-1	BIOMED-2	Unknown	FALSE
Heavy	2019-08-29 13:19:44.209758	Genotype_Pipeline_11_07_19	P6_I56_S1	39649	1	P6_Sequence_protocol	P6_I56	P6_pbmc	B-CELL		P6_pbmc	Homo Sapiens	PBMC	Blood		HHC		Healthy	P6_I56			BioProject: PRJNA491287	https://www.ncbi.nlm.nih.gov/bioproject/?term=PRJNA491287	http://med.stanford.edu/scottboydlab.html	IgBLAST	1.7.0	TigGER	0.3.1	IMGT full - version 4/12/2018	RabHIT	0.1.1	Genotype_Pipeline_11_07_19	see reference	Repertoire	TRUE	Stanford	114	114	P6	NA	Boyd	rna	P6_Sequence_protocol	Constant region	FW-1	BIOMED-2	Unknown	FALSE
Heavy	2019-08-29 13:19:45.709079	Genotype_Pipeline_11_07_19	P6_I66_S1	30641	1	P6_Sequence_protocol	P6_I66	P6_pbmc	B-CELL		P6_pbmc	Homo Sapiens	PBMC	Blood		HHC		Healthy	P6_I66			BioProject: PRJNA491287	https://www.ncbi.nlm.nih.gov/bioproject/?term=PRJNA491287	http://med.stanford.edu/scottboydlab.html	IgBLAST	1.7.0	TigGER	0.3.1	IMGT full - version 4/12/2018	RabHIT	0.1.1	Genotype_Pipeline_11_07_19	see reference	Repertoire	TRUE	Stanford	114	114	P6	NA	Boyd	rna	P6_Sequence_protocol	Constant region	FW-1	BIOMED-2	Unknown	FALSE
Heavy	2019-08-29 13:19:47.496471	Genotype_Pipeline_11_07_19	P6_I81_S1	49073	1	P6_Sequence_protocol	P6_I81	P6_pbmc	B-CELL		P6_pbmc	Homo Sapiens	PBMC	Blood		HHC		Healthy	P6_I81			BioProject: PRJNA491287	https://www.ncbi.nlm.nih.gov/bioproject/?term=PRJNA491287	http://med.stanford.edu/scottboydlab.html	IgBLAST	1.7.0	TigGER	0.3.1	IMGT full - version 4/12/2018	RabHIT	0.1.1	Genotype_Pipeline_11_07_19	see reference	Repertoire	TRUE	Stanford	114	114	P6	NA	Boyd	rna	P6_Sequence_protocol	Constant region	FW-1	BIOMED-2	Unknown	FALSE
Heavy	2019-08-29 13:19:49.398154	Genotype_Pipeline_11_07_19	P6_I83_S1	49571	1	P6_Sequence_protocol	P6_I83	P6_pbmc	B-CELL		P6_pbmc	Homo Sapiens	PBMC	Blood		HHC		Healthy	P6_I83			BioProject: PRJNA491287	https://www.ncbi.nlm.nih.gov/bioproject/?term=PRJNA491287	http://med.stanford.edu/scottboydlab.html	IgBLAST	1.7.0	TigGER	0.3.1	IMGT full - version 4/12/2018	RabHIT	0.1.1	Genotype_Pipeline_11_07_19	see reference	Repertoire	TRUE	Stanford	114	114	P6	NA	Boyd	rna	P6_Sequence_protocol	Constant region	FW-1	BIOMED-2	Unknown	FALSE
Heavy	2019-08-29 13:19:51.003411	Genotype_Pipeline_11_07_19	P6_I84_S1	87896	1	P6_Sequence_protocol	P6_I84	P6_pbmc	B-CELL		P6_pbmc	Homo Sapiens	PBMC	Blood		HHC		Healthy	P6_I84			BioProject: PRJNA491287	https://www.ncbi.nlm.nih.gov/bioproject/?term=PRJNA491287	http://med.stanford.edu/scottboydlab.html	IgBLAST	1.7.0	TigGER	0.3.1	IMGT full - version 4/12/2018	RabHIT	0.1.1	Genotype_Pipeline_11_07_19	see reference	Repertoire	TRUE	Stanford	114	114	P6	NA	Boyd	rna	P6_Sequence_protocol	Constant region	FW-1	BIOMED-2	Unknown	FALSE
Heavy	2019-08-29 13:19:33.537893	Genotype_Pipeline_11_07_19	P6_I85_S1	5461	1	P6_Sequence_protocol	P6_I85	P6_pbmc	B-CELL		P6_pbmc	Homo Sapiens	PBMC	Blood		HHC		Healthy	P6_I85			BioProject: PRJNA491287	https://www.ncbi.nlm.nih.gov/bioproject/?term=PRJNA491287	http://med.stanford.edu/scottboydlab.html	IgBLAST	1.7.0	TigGER	0.3.1	IMGT full - version 4/12/2018	RabHIT	0.1.1	Genotype_Pipeline_11_07_19	see reference	Repertoire	TRUE	Stanford	114	114	P6	NA	Boyd	rna	P6_Sequence_protocol	Constant region	FW-1	BIOMED-2	Unknown	FALSE
Heavy	2019-08-29 13:19:54.664055	Genotype_Pipeline_11_07_19	P6_I86_S1	90696	1	P6_Sequence_protocol	P6_I86	P6_pbmc	B-CELL		P6_pbmc	Homo Sapiens	PBMC	Blood		HHC		Healthy	P6_I86			BioProject: PRJNA491287	https://www.ncbi.nlm.nih.gov/bioproject/?term=PRJNA491287	http://med.stanford.edu/scottboydlab.html	IgBLAST	1.7.0	TigGER	0.3.1	IMGT full - version 4/12/2018	RabHIT	0.1.1	Genotype_Pipeline_11_07_19	see reference	Repertoire	TRUE	Stanford	114	114	P6	NA	Boyd	rna	P6_Sequence_protocol	Constant region	FW-1	BIOMED-2	Unknown	FALSE
Heavy	2019-08-29 13:19:56.286216	Genotype_Pipeline_11_07_19	P6_I87_S1	105697	1	P6_Sequence_protocol	P6_I87	P6_pbmc	B-CELL		P6_pbmc	Homo Sapiens	PBMC	Blood		HHC		Healthy	P6_I87			BioProject: PRJNA491287	https://www.ncbi.nlm.nih.gov/bioproject/?term=PRJNA491287	http://med.stanford.edu/scottboydlab.html	IgBLAST	1.7.0	TigGER	0.3.1	IMGT full - version 4/12/2018	RabHIT	0.1.1	Genotype_Pipeline_11_07_19	see reference	Repertoire	TRUE	Stanford	114	114	P6	NA	Boyd	rna	P6_Sequence_protocol	Constant region	FW-1	BIOMED-2	Unknown	FALSE
Heavy	2019-08-29 13:19:52.998008	Genotype_Pipeline_11_07_19	P6_I88_S1	19569	1	P6_Sequence_protocol	P6_I88	P6_pbmc	B-CELL		P6_pbmc	Homo Sapiens	PBMC	Blood		HHC		Healthy	P6_I88			BioProject: PRJNA491287	https://www.ncbi.nlm.nih.gov/bioproject/?term=PRJNA491287	http://med.stanford.edu/scottboydlab.html	IgBLAST	1.7.0	TigGER	0.3.1	IMGT full - version 4/12/2018	RabHIT	0.1.1	Genotype_Pipeline_11_07_19	see reference	Repertoire	TRUE	Stanford	114	114	P6	NA	Boyd	rna	P6_Sequence_protocol	Constant region	FW-1	BIOMED-2	Unknown	FALSE
Heavy	2019-08-29 13:19:59.656098	Genotype_Pipeline_11_07_19	P6_I89_S1	101402	1	P6_Sequence_protocol	P6_I89	P6_pbmc	B-CELL		P6_pbmc	Homo Sapiens	PBMC	Blood		HHC		Healthy	P6_I89			BioProject: PRJNA491287	https://www.ncbi.nlm.nih.gov/bioproject/?term=PRJNA491287	http://med.stanford.edu/scottboydlab.html	IgBLAST	1.7.0	TigGER	0.3.1	IMGT full - version 4/12/2018	RabHIT	0.1.1	Genotype_Pipeline_11_07_19	see reference	Repertoire	TRUE	Stanford	114	114	P6	NA	Boyd	rna	P6_Sequence_protocol	Constant region	FW-1	BIOMED-2	Unknown	FALSE
Heavy	2019-08-29 13:20:01.593943	Genotype_Pipeline_11_07_19	P6_I90_S1	42456	1	P6_Sequence_protocol	P6_I90	P6_pbmc	B-CELL		P6_pbmc	Homo Sapiens	PBMC	Blood		HHC		Healthy	P6_I90			BioProject: PRJNA491287	https://www.ncbi.nlm.nih.gov/bioproject/?term=PRJNA491287	http://med.stanford.edu/scottboydlab.html	IgBLAST	1.7.0	TigGER	0.3.1	IMGT full - version 4/12/2018	RabHIT	0.1.1	Genotype_Pipeline_11_07_19	see reference	Repertoire	TRUE	Stanford	114	114	P6	NA	Boyd	rna	P6_Sequence_protocol	Constant region	FW-1	BIOMED-2	Unknown	FALSE
Heavy	2019-08-29 13:20:03.562663	Genotype_Pipeline_11_07_19	P6_I100_S1	49699	1	P6_Sequence_protocol	P6_I100	P6_pbmc	B-CELL		P6_pbmc	Homo Sapiens	PBMC	Blood		HHC		Healthy	P6_I100			BioProject: PRJNA491287	https://www.ncbi.nlm.nih.gov/bioproject/?term=PRJNA491287	http://med.stanford.edu/scottboydlab.html	IgBLAST	1.7.0	TigGER	0.3.1	IMGT full - version 4/12/2018	RabHIT	0.1.1	Genotype_Pipeline_11_07_19	see reference	Repertoire	TRUE	Stanford	114	114	P6	NA	Boyd	rna	P6_Sequence_protocol	Constant region	FW-1	BIOMED-2	Unknown	FALSE
Heavy	2019-08-29 13:20:05.039466	Genotype_Pipeline_11_07_19	P6_I105_S1	5968	1	P6_Sequence_protocol	P6_I105	P6_pbmc	B-CELL		P6_pbmc	Homo Sapiens	PBMC	Blood		HHC		Healthy	P6_I105			BioProject: PRJNA491287	https://www.ncbi.nlm.nih.gov/bioproject/?term=PRJNA491287	http://med.stanford.edu/scottboydlab.html	IgBLAST	1.7.0	TigGER	0.3.1	IMGT full - version 4/12/2018	RabHIT	0.1.1	Genotype_Pipeline_11_07_19	see reference	Repertoire	TRUE	Stanford	114	114	P6	NA	Boyd	rna	P6_Sequence_protocol	Constant region	FW-1	BIOMED-2	Unknown	FALSE
Heavy	2019-08-29 13:20:06.378352	Genotype_Pipeline_11_07_19	P6_I106_S1	13687	1	P6_Sequence_protocol	P6_I106	P6_pbmc	B-CELL		P6_pbmc	Homo Sapiens	PBMC	Blood		HHC		Healthy	P6_I106			BioProject: PRJNA491287	https://www.ncbi.nlm.nih.gov/bioproject/?term=PRJNA491287	http://med.stanford.edu/scottboydlab.html	IgBLAST	1.7.0	TigGER	0.3.1	IMGT full - version 4/12/2018	RabHIT	0.1.1	Genotype_Pipeline_11_07_19	see reference	Repertoire	TRUE	Stanford	114	114	P6	NA	Boyd	rna	P6_Sequence_protocol	Constant region	FW-1	BIOMED-2	Unknown	FALSE
Heavy	2019-08-29 13:20:07.894779	Genotype_Pipeline_11_07_19	P6_I107_S1	27217	1	P6_Sequence_protocol	P6_I107	P6_pbmc	B-CELL		P6_pbmc	Homo Sapiens	PBMC	Blood		HHC		Healthy	P6_I107			BioProject: PRJNA491287	https://www.ncbi.nlm.nih.gov/bioproject/?term=PRJNA491287	http://med.stanford.edu/scottboydlab.html	IgBLAST	1.7.0	TigGER	0.3.1	IMGT full - version 4/12/2018	RabHIT	0.1.1	Genotype_Pipeline_11_07_19	see reference	Repertoire	TRUE	Stanford	114	114	P6	NA	Boyd	rna	P6_Sequence_protocol	Constant region	FW-1	BIOMED-2	Unknown	FALSE
Heavy	2019-08-29 13:20:09.482128	Genotype_Pipeline_11_07_19	P6_I108_S1	116712	1	P6_Sequence_protocol	P6_I108	P6_pbmc	B-CELL		P6_pbmc	Homo Sapiens	PBMC	Blood		HHC		Healthy	P6_I108			BioProject: PRJNA491287	https://www.ncbi.nlm.nih.gov/bioproject/?term=PRJNA491287	http://med.stanford.edu/scottboydlab.html	IgBLAST	1.7.0	TigGER	0.3.1	IMGT full - version 4/12/2018	RabHIT	0.1.1	Genotype_Pipeline_11_07_19	see reference	Repertoire	TRUE	Stanford	114	114	P6	NA	Boyd	rna	P6_Sequence_protocol	Constant region	FW-1	BIOMED-2	Unknown	FALSE
Heavy	2019-08-29 13:20:11.122036	Genotype_Pipeline_11_07_19	P6_I109_S1	118387	1	P6_Sequence_protocol	P6_I109	P6_pbmc	B-CELL		P6_pbmc	Homo Sapiens	PBMC	Blood		HHC		Healthy	P6_I109			BioProject: PRJNA491287	https://www.ncbi.nlm.nih.gov/bioproject/?term=PRJNA491287	http://med.stanford.edu/scottboydlab.html	IgBLAST	1.7.0	TigGER	0.3.1	IMGT full - version 4/12/2018	RabHIT	0.1.1	Genotype_Pipeline_11_07_19	see reference	Repertoire	TRUE	Stanford	114	114	P6	NA	Boyd	rna	P6_Sequence_protocol	Constant region	FW-1	BIOMED-2	Unknown	FALSE
Heavy	2019-08-29 13:20:12.607810	Genotype_Pipeline_11_07_19	P6_I113_S1	60939	1	P6_Sequence_protocol	P6_I113	P6_pbmc	B-CELL		P6_pbmc	Homo Sapiens	PBMC	Blood		HHC		Healthy	P6_I113			BioProject: PRJNA491287	https://www.ncbi.nlm.nih.gov/bioproject/?term=PRJNA491287	http://med.stanford.edu/scottboydlab.html	IgBLAST	1.7.0	TigGER	0.3.1	IMGT full - version 4/12/2018	RabHIT	0.1.1	Genotype_Pipeline_11_07_19	see reference	Repertoire	TRUE	Stanford	114	114	P6	NA	Boyd	rna	P6_Sequence_protocol	Constant region	FW-1	BIOMED-2	Unknown	FALSE
Heavy	2019-08-29 13:19:58.050389	Genotype_Pipeline_11_07_19	P6_I114_S1	35553	1	P6_Sequence_protocol	P6_I114	P6_pbmc	B-CELL		P6_pbmc	Homo Sapiens	PBMC	Blood		HHC		Healthy	P6_I114			BioProject: PRJNA491287	https://www.ncbi.nlm.nih.gov/bioproject/?term=PRJNA491287	http://med.stanford.edu/scottboydlab.html	IgBLAST	1.7.0	TigGER	0.3.1	IMGT full - version 4/12/2018	RabHIT	0.1.1	Genotype_Pipeline_11_07_19	see reference	Repertoire	TRUE	Stanford	114	114	P6	NA	Boyd	rna	P6_Sequence_protocol	Constant region	FW-1	BIOMED-2	Unknown	FALSE
